Assignment #5
…
Correct the overnight corrections that were not handled properly,
which led to scheduled arrivals earlier than departures.

Adjust the actual departure or arrival time to accurately reflect
the correct time, taking into consideration any discrepancies that may
arise due to overnight stays between the scheduled and actual
times.

flights_dt %>%
    mutate(dep_time_ = sched_dep_time + dep_delay * 60) %>%
    filter(dep_time_ != dep_time) %>%
    select(dep_time_, dep_time, sched_dep_time, dep_delay)

## # A tibble: 1,205 × 4
##    dep_time_           dep_time            sched_dep_time      dep_delay
##    <dttm>              <dttm>              <dttm>                  <dbl>
##  1 2013-01-02 08:48:00 2013-01-01 08:48:00 2013-01-01 18:35:00       853
##  2 2013-01-03 00:42:00 2013-01-02 00:42:00 2013-01-02 23:59:00        43
##  3 2013-01-03 01:26:00 2013-01-02 01:26:00 2013-01-02 22:50:00       156
##  4 2013-01-04 00:32:00 2013-01-03 00:32:00 2013-01-03 23:59:00        33
##  5 2013-01-04 00:50:00 2013-01-03 00:50:00 2013-01-03 21:45:00       185
##  6 2013-01-04 02:35:00 2013-01-03 02:35:00 2013-01-03 23:59:00       156
##  7 2013-01-05 00:25:00 2013-01-04 00:25:00 2013-01-04 23:59:00        26
##  8 2013-01-05 01:06:00 2013-01-04 01:06:00 2013-01-04 22:45:00       141
##  9 2013-01-06 00:14:00 2013-01-05 00:14:00 2013-01-05 23:59:00        15
## 10 2013-01-06 00:37:00 2013-01-05 00:37:00 2013-01-05 22:30:00       127
## # ℹ 1,195 more rows

flights_dt %>%
    mutate(arr_time_ = sched_arr_time + arr_delay * 60) %>%
    filter(arr_time_ != arr_time) %>%
    select(arr_time_, arr_time, sched_arr_time, arr_delay)

## # A tibble: 7,295 × 4
##    arr_time_           arr_time            sched_arr_time      arr_delay
##    <dttm>              <dttm>              <dttm>                  <dbl>
##  1 2013-01-02 10:01:00 2013-01-01 10:01:00 2013-01-01 19:50:00       851
##  2 2012-12-31 23:37:00 2013-01-01 23:37:00 2013-01-01 00:05:00       -28
##  3 2013-01-02 00:08:00 2013-01-01 00:08:00 2013-01-01 23:59:00         9
##  4 2012-12-31 23:45:00 2013-01-01 23:45:00 2013-01-01 00:17:00       -32
##  5 2013-01-02 00:06:00 2013-01-01 00:06:00 2013-01-01 23:23:00        43
##  6 2013-01-02 00:20:00 2013-01-01 00:20:00 2013-01-01 23:52:00        28
##  7 2013-01-02 00:46:00 2013-01-01 00:46:00 2013-01-01 20:40:00       246
##  8 2013-01-02 00:32:00 2013-01-01 00:32:00 2013-01-01 23:57:00        35
##  9 2013-01-02 00:21:00 2013-01-01 00:21:00 2013-01-01 21:10:00       191
## 10 2013-01-02 00:22:00 2013-01-01 00:22:00 2013-01-01 23:13:00        69
## # ℹ 7,285 more rows

flights_dt %>% 
  filter(sched_arr_time < sched_dep_time) 

## # A tibble: 6,005 × 12
##    origin dest  dep_delay arr_delay dep_time            sched_dep_time     
##    <chr>  <chr>     <dbl>     <dbl> <dttm>              <dttm>             
##  1 EWR    BQN           9        -4 2013-01-01 19:29:00 2013-01-01 19:20:00
##  2 EWR    LAX           5       -28 2013-01-01 20:35:00 2013-01-01 20:30:00
##  3 EWR    SJU          -6       -12 2013-01-01 21:02:00 2013-01-01 21:08:00
##  4 JFK    LAS          -7       -32 2013-01-01 21:03:00 2013-01-01 21:10:00
##  5 EWR    SFO          11       -14 2013-01-01 21:08:00 2013-01-01 20:57:00
##  6 LGA    FLL         -10        -2 2013-01-01 21:20:00 2013-01-01 21:30:00
##  7 JFK    LAX          -7       -24 2013-01-01 21:28:00 2013-01-01 21:35:00
##  8 EWR    FLL          -9       -14 2013-01-01 21:36:00 2013-01-01 21:45:00
##  9 JFK    SJU           5       -14 2013-01-01 21:40:00 2013-01-01 21:35:00
## 10 JFK    MCO           2         2 2013-01-01 21:57:00 2013-01-01 21:55:00
## # ℹ 5,995 more rows
## # ℹ 6 more variables: arr_time <dttm>, sched_arr_time <dttm>, air_time <dbl>,
## #   sched_minute <int>, minute <int>, early <lgl>
…
            Pclass == 3 ~ "3rd"
        ),
        Age_group = cut(
            # Age, breaks = c(0, 3, 12, 20, 55, 100), 
            # labels = c('infant', 'kid', 'teenager', 'adult', 'aged')
            Age, breaks = c(0, 18, 100),
            labels = c('child', 'adult')
        ),
        Family = if_else(SibSp > 0 | Parch > 0, 'family', 'personal')
    ) %>%
    select(Class, Sex, Age_group, Family, Result) %>%
    drop_na() # drop 177 rows; all na's are in Age_group
)

## # A tibble: 714 × 5
##    Class Sex    Age_group Family   Result     
##    <chr> <chr>  <fct>     <chr>    <chr>      
##  1 3rd   male   adult     family   "perished" 
##  2 1st   female adult     family   " survived"
##  3 3rd   female adult     personal " survived"
##  4 1st   female adult     family   " survived"
##  5 3rd   male   adult     personal "perished" 
##  6 1st   male   adult     personal "perished" 
##  7 3rd   male   child     family   "perished" 
##  8 3rd   female adult     family   " survived"
##  9 2nd   female child     family   " survived"
## 10 3rd   female child     family   " survived"
## # ℹ 704 more rows

(df <- df %>% 
    group_by(Class, Sex, Age_group, Family, Result) %>%
    count() 
)

## # A tibble: 41 × 6
## # Groups:   Class, Sex, Age_group, Family, Result [41]
##    Class Sex    Age_group Family   Result          n
##    <chr> <chr>  <fct>     <chr>    <chr>       <int>
##  1 1st   female child     family   " survived"     9
##  2 1st   female child     family   "perished"      1
##  3 1st   female child     personal " survived"     1
##  4 1st   female adult     family   " survived"    42
##  5 1st   female adult     family   "perished"      1
##  6 1st   female adult     personal " survived"    30
##  7 1st   female adult     personal "perished"      1
##  8 1st   male   child     family   " survived"     4
##  9 1st   male   child     family   "perished"      1
## 10 1st   male   adult     family   " survived"    16
## # ℹ 31 more rows
…
            x == 2 ~ "Sex",
            x == 3 ~ "Adult or Child",
            x == 4 ~ "With Family or Not",
            x == 5 ~ "Survival Result"
        ),
        levels = c("Cabin Class", 
                   "Sex", 
                   "Adult or Child", 
                   "With Family or Not", 
                   "Survival Result")
        )
    )
)

## # A tibble: 205 × 9
## # Groups:   Class, Sex, Age_group, Family, Result [41]
##    Class Sex    Age_group Family   Result          n    id x           y    
##    <chr> <chr>  <fct>     <chr>    <chr>       <int> <int> <fct>       <chr>
##  1 1st   female child     family   " survived"     9     1 Cabin Class 1st  
##  2 1st   female child     family   "perished"      1     2 Cabin Class 1st  
##  3 1st   female child     personal " survived"     1     3 Cabin Class 1st  
##  4 1st   female adult     family   " survived"    42     4 Cabin Class 1st  
##  5 1st   female adult     family   "perished"      1     5 Cabin Class 1st  
##  6 1st   female adult     personal " survived"    30     6 Cabin Class 1st  
##  7 1st   female adult     personal "perished"      1     7 Cabin Class 1st  
##  8 1st   male   child     family   " survived"     4     8 Cabin Class 1st  
##  9 1st   male   child     family   "perished"      1     9 Cabin Class 1st  
## 10 1st   male   adult     family   " survived"    16    10 Cabin Class 1st  
## # ℹ 195 more rows
…
